{
  "results": [
    {
      "ticker": "X:00USD",
      "name": "00 Token - United States dollar",
      "market": "crypto",
      "locale": "global",
      "active": true,
      "currency_symbol": "USD",
      "currency_name": "United States dollar",
      "base_currency_symbol": "00",
      "base_currency_name": "00 Token",
      "last_updated_utc": "2017-01-01T00:00:00Z"
    },
    {
      "ticker": "X:1INCHUSD",
      "name": "1inch - United States dollar",
      "market": "crypto",
      "locale": "global",
      "active": true,
      "currency_symbol": "USD",
      "currency_name": "United States dollar",
      "base_currency_symbol": "1INCH",
      "base_currency_name": "1inch",
      "last_updated_utc": "2017-01-01T00:00:00Z"
    },
    {
      "ticker": "X:A8USD",
      "name": "Ancient8 - United States dollar",
      "market": "crypto",
      "locale": "global",
      "active": true,
      "currency_symbol": "USD",
      "currency_name": "United States dollar",
      "base_currency_symbol": "A8",
      "base_currency_name": "Ancient8",
      "last_updated_utc": "2017-01-01T00:00:00Z"
    },
    {
      "ticker": "X:AAVEUSD",
      "name": "Aave - United States dollar",
      "market": "crypto",
      "locale": "global",
      "active": true,
      "currency_symbol": "USD",
      "currency_name": "United States dollar",
      "base_currency_symbol": "AAVE",
      "base_currency_name": "Aave",
      "last_updated_utc": "2017-01-01T00:00:00Z"
    },
    {
      "ticker": "X:ABTUSD",
      "name": "Arcblock - United States dollar",
      "market": "crypto",
      "locale": "global",
      "active": true,
      "currency_symbol": "USD",
      "currency_name": "United States dollar",
      "base_currency_symbol": "ABT",
      "base_currency_name": "Arcblock",
      "last_updated_utc": "2017-01-01T00:00:00Z"
    },
    {
      "ticker": "X:ACAUSD",
      "name": "Acala - United States dollar",
      "market": "crypto",
      "locale": "global",
      "active": true,
      "currency_symbol": "USD",
      "currency_name": "United States dollar",
      "base_currency_symbol": "ACA",
      "base_currency_name": "Acala",
      "last_updated_utc": "2017-01-01T00:00:00Z"
    },
    {
      "ticker": "X:ACHUSD",
      "name": "Alchemy Pay - United States dollar",
      "market": "crypto",
      "locale": "global",
      "active": true,
      "currency_symbol": "USD",
      "currency_name": "United States dollar",
      "base_currency_symbol": "ACH",
      "base_currency_name": "Alchemy Pay",
      "last_updated_utc": "2017-01-01T00:00:00Z"
    },
    {
      "ticker": "X:ACSUSD",
      "name": "Access Protocol - United States dollar",
      "market": "crypto",
      "locale": "global",
      "active": true,
      "currency_symbol": "USD",
      "currency_name": "United States dollar",
      "base_currency_symbol": "ACS",
      "base_currency_name": "Access Protocol",
      "last_updated_utc": "2017-01-01T00:00:00Z"
    },
    {
      "ticker": "X:ACXUSD",
      "name": "Across Protocol - United States dollar",
      "market": "crypto",
      "locale": "global",
      "active": true,
      "currency_symbol": "USD",
      "currency_name": "United States dollar",
      "base_currency_symbol": "ACX",
      "base_currency_name": "Across Protocol",
      "last_updated_utc": "2017-01-01T00:00:00Z"
    },
    {
      "ticker": "X:ADAUSD",
      "name": "Cardano - United States dollar",
      "market": "crypto",
      "locale": "global",
      "active": true,
      "currency_symbol": "USD",
      "currency_name": "United States dollar",
      "base_currency_symbol": "ADA",
      "base_currency_name": "Cardano",
      "last_updated_utc": "2017-01-01T00:00:00Z"
    },
    {
      "ticker": "X:ADXUSD",
      "name": "AdEx - United States dollar",
      "market": "crypto",
      "locale": "global",
      "active": true,
      "currency_symbol": "USD",
      "currency_name": "United States dollar",
      "base_currency_symbol": "ADX",
      "base_currency_name": "AdEx",
      "last_updated_utc": "2017-01-01T00:00:00Z"
    },
    {
      "ticker": "X:AERGOUSD",
      "name": "Aergo - United States dollar",
      "market": "crypto",
      "locale": "global",
      "active": true,
      "currency_symbol": "USD",
      "currency_name": "United States dollar",
      "base_currency_symbol": "AERGO",
      "base_currency_name": "Aergo",
      "last_updated_utc": "2017-01-01T00:00:00Z"
    },
    {
      "ticker": "X:AEROUSD",
      "name": "Aerodome Finance - United States dollar",
      "market": "crypto",
      "locale": "global",
      "active": true,
      "currency_symbol": "USD",
      "currency_name": "United States dollar",
      "base_currency_symbol": "AERO",
      "base_currency_name": "Aerodome Finance",
      "last_updated_utc": "2017-01-01T00:00:00Z"
    },
    {
      "ticker": "X:AEVOUSD",
      "name": "Aevo - United States dollar",
      "market": "crypto",
      "locale": "global",
      "active": true,
      "currency_symbol": "USD",
      "currency_name": "United States dollar",
      "base_currency_symbol": "AEVO",
      "base_currency_name": "Aevo",
      "last_updated_utc": "2017-01-01T00:00:00Z"
    },
    {
      "ticker": "X:AGLDUSD",
      "name": "Adventure Gold - United States dollar",
      "market": "crypto",
      "locale": "global",
      "active": true,
      "currency_symbol": "USD",
      "currency_name": "United States dollar",
      "base_currency_symbol": "AGLD",
      "base_currency_name": "Adventure Gold",
      "last_updated_utc": "2017-01-01T00:00:00Z"
    },
    {
      "ticker": "X:AIOZUSD",
      "name": "AIOZ Network - United States dollar",
      "market": "crypto",
      "locale": "global",
      "active": true,
      "currency_symbol": "USD",
      "currency_name": "United States dollar",
      "base_currency_symbol": "AIOZ",
      "base_currency_name": "AIOZ Network",
      "last_updated_utc": "2017-01-01T00:00:00Z"
    },
    {
      "ticker": "X:AIRUSD",
      "name": "AIRian - United States dollar",
      "market": "crypto",
      "locale": "global",
      "active": true,
      "currency_symbol": "USD",
      "currency_name": "United States dollar",
      "base_currency_symbol": "AIR",
      "base_currency_name": "AIRian",
      "last_updated_utc": "2017-01-01T00:00:00Z"
    },
    {
      "ticker": "X:AKTEUR",
      "name": "Akash Network - Euro",
      "market": "crypto",
      "locale": "global",
      "active": true,
      "currency_symbol": "EUR",
      "currency_name": "Euro",
      "base_currency_symbol": "AKT",
      "base_currency_name": "Akash Network",
      "last_updated_utc": "2017-01-01T00:00:00Z"
    },
    {
      "ticker": "X:AKTUSD",
      "name": "Akash - United States dollar",
      "market": "crypto",
      "locale": "global",
      "active": true,
      "currency_symbol": "USD",
      "currency_name": "United States dollar",
      "base_currency_symbol": "AKT",
      "base_currency_name": "Akash",
      "last_updated_utc": "2017-01-01T00:00:00Z"
    },
    {
      "ticker": "X:ALBTUSD",
      "name": "AllianceBlock - United States dollar",
      "market": "crypto",
      "locale": "global",
      "active": true,
      "currency_symbol": "USD",
      "currency_name": "United States dollar",
      "base_currency_symbol": "ALBT",
      "base_currency_name": "AllianceBlock",
      "last_updated_utc": "2017-01-01T00:00:00Z"
    },
    {
      "ticker": "X:ALCXUSD",
      "name": "Alchemix - United States dollar",
      "market": "crypto",
      "locale": "global",
      "active": true,
      "currency_symbol": "USD",
      "currency_name": "United States dollar",
      "base_currency_symbol": "ALCX",
      "base_currency_name": "Alchemix",
      "last_updated_utc": "2017-01-01T00:00:00Z"
    },
    {
      "ticker": "X:ALEOUSD",
      "name": "Aleo - United States dollar",
      "market": "crypto",
      "locale": "global",
      "active": true,
      "currency_symbol": "USD",
      "currency_name": "United States dollar",
      "base_currency_symbol": "ALEO",
      "base_currency_name": "Aleo",
      "last_updated_utc": "2017-01-01T00:00:00Z"
    },
    {
      "ticker": "X:ALEPHUSD",
      "name": "Aleph.im v2 - United States dollar",
      "market": "crypto",
      "locale": "global",
      "active": true,
      "currency_symbol": "USD",
      "currency_name": "United States dollar",
      "base_currency_symbol": "ALEPH",
      "base_currency_name": "Aleph.im v2",
      "last_updated_utc": "2017-01-01T00:00:00Z"
    },
    {
      "ticker": "X:ALGOUSD",
      "name": "Algorand - United States dollar",
      "market": "crypto",
      "locale": "global",
      "active": true,
      "currency_symbol": "USD",
      "currency_name": "United States dollar",
      "base_currency_symbol": "ALGO",
      "base_currency_name": "Algorand",
      "last_updated_utc": "2017-01-01T00:00:00Z"
    },
    {
      "ticker": "X:ALGUSD",
      "name": "Algory - United States dollar",
      "market": "crypto",
      "locale": "global",
      "active": true,
      "currency_symbol": "USD",
      "currency_name": "United States dollar",
      "base_currency_symbol": "ALG",
      "base_currency_name": "Algory",
      "last_updated_utc": "2017-01-01T00:00:00Z"
    },
    {
      "ticker": "X:ALICEUSD",
      "name": "MyNeighborAlice - United States dollar",
      "market": "crypto",
      "locale": "global",
      "active": true,
      "currency_symbol": "USD",
      "currency_name": "United States dollar",
      "base_currency_symbol": "ALICE",
      "base_currency_name": "MyNeighborAlice",
      "last_updated_utc": "2017-01-01T00:00:00Z"
    },
    {
      "ticker": "X:ALPHAUSD",
      "name": "Stella - United States dollar",
      "market": "crypto",
      "locale": "global",
      "active": true,
      "currency_symbol": "USD",
      "currency_name": "United States dollar",
      "base_currency_symbol": "ALPHA",
      "base_currency_name": "Stella",
      "last_updated_utc": "2017-01-01T00:00:00Z"
    },
    {
      "ticker": "X:ALT11M2507USD",
      "name": "ALT11M2507 - United States dollar",
      "market": "crypto",
      "locale": "global",
      "active": true,
      "currency_symbol": "USD",
      "currency_name": "United States dollar",
      "base_currency_symbol": "ALT11M2507",
      "base_currency_name": "ALT11M2507",
      "last_updated_utc": "2017-01-01T00:00:00Z"
    },
    {
      "ticker": "X:ALT11M250830USD",
      "name": "ALT11M250830 - United States dollar",
      "market": "crypto",
      "locale": "global",
      "active": true,
      "currency_symbol": "USD",
      "currency_name": "United States dollar",
      "base_currency_symbol": "ALT11M250830",
      "base_currency_name": "ALT11M250830",
      "last_updated_utc": "2017-01-01T00:00:00Z"
    },
    {
      "ticker": "X:ALT11M251029USD",
      "name": "ALT11M251029 - United States dollar",
      "market": "crypto",
      "locale": "global",
      "active": true,
      "currency_symbol": "USD",
      "currency_name": "United States dollar",
      "base_currency_symbol": "ALT11M251029",
      "base_currency_name": "ALT11M251029",
      "last_updated_utc": "2017-01-01T00:00:00Z"
    },
    {
      "ticker": "X:ALT2612USD",
      "name": "ALT2612 - United States dollar",
      "market": "crypto",
      "locale": "global",
      "active": true,
      "currency_symbol": "USD",
      "currency_name": "United States dollar",
      "base_currency_symbol": "ALT2612",
      "base_currency_name": "ALT2612",
      "last_updated_utc": "2017-01-01T00:00:00Z"
    },
    {
      "ticker": "X:ALTUSD",
      "name": "AltLayer - United States dollar",
      "market": "crypto",
      "locale": "global",
      "active": true,
      "currency_symbol": "USD",
      "currency_name": "United States dollar",
      "base_currency_symbol": "ALT",
      "base_currency_name": "AltLayer",
      "last_updated_utc": "2017-01-01T00:00:00Z"
    },
    {
      "ticker": "X:AMPUSD",
      "name": "Amp - United States dollar",
      "market": "crypto",
      "locale": "global",
      "active": true,
      "currency_symbol": "USD",
      "currency_name": "United States dollar",
      "base_currency_symbol": "AMP",
      "base_currency_name": "Amp",
      "last_updated_utc": "2017-01-01T00:00:00Z"
    },
    {
      "ticker": "X:ANKRUSD",
      "name": "Ankr - United States dollar",
      "market": "crypto",
      "locale": "global",
      "active": true,
      "currency_symbol": "USD",
      "currency_name": "United States dollar",
      "base_currency_symbol": "ANKR",
      "base_currency_name": "Ankr",
      "last_updated_utc": "2017-01-01T00:00:00Z"
    },
    {
      "ticker": "X:ANTUSD",
      "name": "Aragon - United States dollar",
      "market": "crypto",
      "locale": "global",
      "active": true,
      "currency_symbol": "USD",
      "currency_name": "United States dollar",
      "base_currency_symbol": "ANT",
      "base_currency_name": "Aragon",
      "last_updated_utc": "2017-01-01T00:00:00Z"
    },
    {
      "ticker": "X:APENFTUSD",
      "name": "APENFT - United States dollar",
      "market": "crypto",
      "locale": "global",
      "active": true,
      "currency_symbol": "USD",
      "currency_name": "United States dollar",
      "base_currency_symbol": "APENFT",
      "base_currency_name": "APENFT",
      "last_updated_utc": "2017-01-01T00:00:00Z"
    },
    {
      "ticker": "X:APEUSD",
      "name": "ApeCoin - United States dollar",
      "market": "crypto",
      "locale": "global",
      "active": true,
      "currency_symbol": "USD",
      "currency_name": "United States dollar",
      "base_currency_symbol": "APE",
      "base_currency_name": "ApeCoin",
      "last_updated_utc": "2017-01-01T00:00:00Z"
    },
    {
      "ticker": "X:API3USD",
      "name": "API3 - United States dollar",
      "market": "crypto",
      "locale": "global",
      "active": true,
      "currency_symbol": "USD",
      "currency_name": "United States dollar",
      "base_currency_symbol": "API3",
      "base_currency_name": "API3",
      "last_updated_utc": "2017-01-01T00:00:00Z"
    },
    {
      "ticker": "X:APPUSD",
      "name": "Moon App - United States dollar",
      "market": "crypto",
      "locale": "global",
      "active": true,
      "currency_symbol": "USD",
      "currency_name": "United States dollar",
      "base_currency_symbol": "APP",
      "base_currency_name": "Moon App",
      "last_updated_utc": "2017-01-01T00:00:00Z"
    },
    {
      "ticker": "X:APTUSD",
      "name": "Aptos - United States dollar",
      "market": "crypto",
      "locale": "global",
      "active": true,
      "currency_symbol": "USD",
      "currency_name": "United States dollar",
      "base_currency_symbol": "APT",
      "base_currency_name": "Aptos",
      "last_updated_utc": "2017-01-01T00:00:00Z"
    },
    {
      "ticker": "X:APUUSD",
      "name": "APU - United States dollar",
      "market": "crypto",
      "locale": "global",
      "active": true,
      "currency_symbol": "USD",
      "currency_name": "United States dollar",
      "base_currency_symbol": "APU",
      "base_currency_name": "APU",
      "last_updated_utc": "2017-01-01T00:00:00Z"
    },
    {
      "ticker": "X:ARBUSD",
      "name": "Arbitrum - United States dollar",
      "market": "crypto",
      "locale": "global",
      "active": true,
      "currency_symbol": "USD",
      "currency_name": "United States dollar",
      "base_currency_symbol": "ARB",
      "base_currency_name": "Arbitrum",
      "last_updated_utc": "2017-01-01T00:00:00Z"
    },
    {
      "ticker": "X:ARKMUSD",
      "name": "Arkham - United States dollar",
      "market": "crypto",
      "locale": "global",
      "active": true,
      "currency_symbol": "USD",
      "currency_name": "United States dollar",
      "base_currency_symbol": "ARKM",
      "base_currency_name": "Arkham",
      "last_updated_utc": "2017-01-01T00:00:00Z"
    },
    {
      "ticker": "X:ARPAUSD",
      "name": "ARPA Chain - United States dollar",
      "market": "crypto",
      "locale": "global",
      "active": true,
      "currency_symbol": "USD",
      "currency_name": "United States dollar",
      "base_currency_symbol": "ARPA",
      "base_currency_name": "ARPA Chain",
      "last_updated_utc": "2017-01-01T00:00:00Z"
    },
    {
      "ticker": "X:ASMUSD",
      "name": "Assemble Protocol - United States dollar",
      "market": "crypto",
      "locale": "global",
      "active": true,
      "currency_symbol": "USD",
      "currency_name": "United States dollar",
      "base_currency_symbol": "ASM",
      "base_currency_name": "Assemble Protocol",
      "last_updated_utc": "2017-01-01T00:00:00Z"
    },
    {
      "ticker": "X:ASTRUSD",
      "name": "Astar - United States dollar",
      "market": "crypto",
      "locale": "global",
      "active": true,
      "currency_symbol": "USD",
      "currency_name": "United States dollar",
      "base_currency_symbol": "ASTR",
      "base_currency_name": "Astar",
      "last_updated_utc": "2017-01-01T00:00:00Z"
    },
    {
      "ticker": "X:ASTUSD",
      "name": "AirSwap - United States dollar",
      "market": "crypto",
      "locale": "global",
      "active": true,
      "currency_symbol": "USD",
      "currency_name": "United States dollar",
      "base_currency_symbol": "AST",
      "base_currency_name": "AirSwap",
      "last_updated_utc": "2017-01-01T00:00:00Z"
    },
    {
      "ticker": "X:ATAUSD",
      "name": "Automata Network - United States dollar",
      "market": "crypto",
      "locale": "global",
      "active": true,
      "currency_symbol": "USD",
      "currency_name": "United States dollar",
      "base_currency_symbol": "ATA",
      "base_currency_name": "Automata Network",
      "last_updated_utc": "2017-01-01T00:00:00Z"
    },
    {
      "ticker": "X:ATHUSD",
      "name": "Aethir - United States dollar",
      "market": "crypto",
      "locale": "global",
      "active": true,
      "currency_symbol": "USD",
      "currency_name": "United States dollar",
      "base_currency_symbol": "ATH",
      "base_currency_name": "Aethir",
      "last_updated_utc": "2017-01-01T00:00:00Z"
    },
    {
      "ticker": "X:ATLASUSD",
      "name": "Star Atlas - United States dollar",
      "market": "crypto",
      "locale": "global",
      "active": true,
      "currency_symbol": "USD",
      "currency_name": "United States dollar",
      "base_currency_symbol": "ATLAS",
      "base_currency_name": "Star Atlas",
      "last_updated_utc": "2017-01-01T00:00:00Z"
    }
  ],
  "status": "OK",
  "request_id": "7d75377cf01fa1b458caa0e986dbe14c",
  "count": 100,
  "next_url": "https://api.massive.com/v3/reference/tickers?cursor=YWN0aXZlPXRydWUmYXA9MTAwJmFzPSZsaW1pdD0xMDAmbWFya2V0PWNyeXB0byZvcmRlcj1hc2Mmc29ydD10aWNrZXI"
}