{
  "results": [
    {
      "ticker": "C:AEDAUD",
      "name": "United Arab Emirates dirham - Australian dollar",
      "market": "fx",
      "locale": "global",
      "active": true,
      "currency_symbol": "AUD",
      "currency_name": "Australian dollar",
      "base_currency_symbol": "AED",
      "base_currency_name": "United Arab Emirates dirham",
      "last_updated_utc": "2017-01-01T00:00:00Z"
    },
    {
      "ticker": "C:AEDBHD",
      "name": "United Arab Emirates dirham - Bahraini dinar",
      "market": "fx",
      "locale": "global",
      "active": true,
      "currency_symbol": "BHD",
      "currency_name": "Bahraini dinar",
      "base_currency_symbol": "AED",
      "base_currency_name": "United Arab Emirates dirham",
      "last_updated_utc": "2017-01-01T00:00:00Z"
    },
    {
      "ticker": "C:AEDCAD",
      "name": "United Arab Emirates dirham - Canadian dollar",
      "market": "fx",
      "locale": "global",
      "active": true,
      "currency_symbol": "CAD",
      "currency_name": "Canadian dollar",
      "base_currency_symbol": "AED",
      "base_currency_name": "United Arab Emirates dirham",
      "last_updated_utc": "2017-01-01T00:00:00Z"
    },
    {
      "ticker": "C:AEDCHF",
      "name": "United Arab Emirates dirham - Swiss franc",
      "market": "fx",
      "locale": "global",
      "active": true,
      "currency_symbol": "CHF",
      "currency_name": "Swiss franc",
      "base_currency_symbol": "AED",
      "base_currency_name": "United Arab Emirates dirham",
      "last_updated_utc": "2017-01-01T00:00:00Z"
    },
    {
      "ticker": "C:AEDDKK",
      "name": "United Arab Emirates dirham - Danish krone",
      "market": "fx",
      "locale": "global",
      "active": true,
      "currency_symbol": "DKK",
      "currency_name": "Danish krone",
      "base_currency_symbol": "AED",
      "base_currency_name": "United Arab Emirates dirham",
      "last_updated_utc": "2017-01-01T00:00:00Z"
    },
    {
      "ticker": "C:AEDEUR",
      "name": "United Arab Emirates dirham - Euro",
      "market": "fx",
      "locale": "global",
      "active": true,
      "currency_symbol": "EUR",
      "currency_name": "Euro",
      "base_currency_symbol": "AED",
      "base_currency_name": "United Arab Emirates dirham",
      "last_updated_utc": "2017-01-01T00:00:00Z"
    },
    {
      "ticker": "C:AEDGBP",
      "name": "United Arab Emirates dirham - Pound sterling",
      "market": "fx",
      "locale": "global",
      "active": true,
      "currency_symbol": "GBP",
      "currency_name": "Pound sterling",
      "base_currency_symbol": "AED",
      "base_currency_name": "United Arab Emirates dirham",
      "last_updated_utc": "2017-01-01T00:00:00Z"
    },
    {
      "ticker": "C:AEDINR",
      "name": "United Arab Emirates dirham - Indian rupee",
      "market": "fx",
      "locale": "global",
      "active": true,
      "currency_symbol": "INR",
      "currency_name": "Indian rupee",
      "base_currency_symbol": "AED",
      "base_currency_name": "United Arab Emirates dirham",
      "last_updated_utc": "2017-01-01T00:00:00Z"
    },
    {
      "ticker": "C:AEDJPY",
      "name": "United Arab Emirates dirham - Japanese yen",
      "market": "fx",
      "locale": "global",
      "active": true,
      "currency_symbol": "JPY",
      "currency_name": "Japanese yen",
      "base_currency_symbol": "AED",
      "base_currency_name": "United Arab Emirates dirham",
      "last_updated_utc": "2017-01-01T00:00:00Z"
    },
    {
      "ticker": "C:AEDNOK",
      "name": "United Arab Emirates dirham - Norwegian krone",
      "market": "fx",
      "locale": "global",
      "active": true,
      "currency_symbol": "NOK",
      "currency_name": "Norwegian krone",
      "base_currency_symbol": "AED",
      "base_currency_name": "United Arab Emirates dirham",
      "last_updated_utc": "2017-01-01T00:00:00Z"
    },
    {
      "ticker": "C:AEDNZD",
      "name": "United Arab Emirates dirham - New Zealand dollar",
      "market": "fx",
      "locale": "global",
      "active": true,
      "currency_symbol": "NZD",
      "currency_name": "New Zealand dollar",
      "base_currency_symbol": "AED",
      "base_currency_name": "United Arab Emirates dirham",
      "last_updated_utc": "2017-01-01T00:00:00Z"
    },
    {
      "ticker": "C:AEDPKR",
      "name": "United Arab Emirates dirham - Pakistani rupee",
      "market": "fx",
      "locale": "global",
      "active": true,
      "currency_symbol": "PKR",
      "currency_name": "Pakistani rupee",
      "base_currency_symbol": "AED",
      "base_currency_name": "United Arab Emirates dirham",
      "last_updated_utc": "2017-01-01T00:00:00Z"
    },
    {
      "ticker": "C:AEDSAR",
      "name": "United Arab Emirates dirham - Saudi riyal",
      "market": "fx",
      "locale": "global",
      "active": true,
      "currency_symbol": "SAR",
      "currency_name": "Saudi riyal",
      "base_currency_symbol": "AED",
      "base_currency_name": "United Arab Emirates dirham",
      "last_updated_utc": "2017-01-01T00:00:00Z"
    },
    {
      "ticker": "C:AEDSEK",
      "name": "United Arab Emirates dirham - Swedish krona",
      "market": "fx",
      "locale": "global",
      "active": true,
      "currency_symbol": "SEK",
      "currency_name": "Swedish krona",
      "base_currency_symbol": "AED",
      "base_currency_name": "United Arab Emirates dirham",
      "last_updated_utc": "2017-01-01T00:00:00Z"
    },
    {
      "ticker": "C:AEDUSD",
      "name": "United Arab Emirates dirham - United States dollar",
      "market": "fx",
      "locale": "global",
      "active": true,
      "currency_symbol": "USD",
      "currency_name": "United States dollar",
      "base_currency_symbol": "AED",
      "base_currency_name": "United Arab Emirates dirham",
      "last_updated_utc": "2017-01-01T00:00:00Z"
    },
    {
      "ticker": "C:AEDZAR",
      "name": "United Arab Emirates dirham - South African rand",
      "market": "fx",
      "locale": "global",
      "active": true,
      "currency_symbol": "ZAR",
      "currency_name": "South African rand",
      "base_currency_symbol": "AED",
      "base_currency_name": "United Arab Emirates dirham",
      "last_updated_utc": "2017-01-01T00:00:00Z"
    },
    {
      "ticker": "C:AFNGBP",
      "name": "Afghan afghani - Pound sterling",
      "market": "fx",
      "locale": "global",
      "active": true,
      "currency_symbol": "GBP",
      "currency_name": "Pound sterling",
      "base_currency_symbol": "AFN",
      "base_currency_name": "Afghan afghani",
      "last_updated_utc": "2017-01-01T00:00:00Z"
    },
    {
      "ticker": "C:ALLEUR",
      "name": "Albanian lek - Euro",
      "market": "fx",
      "locale": "global",
      "active": true,
      "currency_symbol": "EUR",
      "currency_name": "Euro",
      "base_currency_symbol": "ALL",
      "base_currency_name": "Albanian lek",
      "last_updated_utc": "2017-01-01T00:00:00Z"
    },
    {
      "ticker": "C:ALLGBP",
      "name": "Albanian lek - Pound sterling",
      "market": "fx",
      "locale": "global",
      "active": true,
      "currency_symbol": "GBP",
      "currency_name": "Pound sterling",
      "base_currency_symbol": "ALL",
      "base_currency_name": "Albanian lek",
      "last_updated_utc": "2017-01-01T00:00:00Z"
    },
    {
      "ticker": "C:ALLUSD",
      "name": "Albanian lek - United States dollar",
      "market": "fx",
      "locale": "global",
      "active": true,
      "currency_symbol": "USD",
      "currency_name": "United States dollar",
      "base_currency_symbol": "ALL",
      "base_currency_name": "Albanian lek",
      "last_updated_utc": "2017-01-01T00:00:00Z"
    },
    {
      "ticker": "C:AMDGBP",
      "name": "Armenian dram - Pound sterling",
      "market": "fx",
      "locale": "global",
      "active": true,
      "currency_symbol": "GBP",
      "currency_name": "Pound sterling",
      "base_currency_symbol": "AMD",
      "base_currency_name": "Armenian dram",
      "last_updated_utc": "2017-01-01T00:00:00Z"
    },
    {
      "ticker": "C:ARSAUD",
      "name": "Argentine peso - Australian dollar",
      "market": "fx",
      "locale": "global",
      "active": true,
      "currency_symbol": "AUD",
      "currency_name": "Australian dollar",
      "base_currency_symbol": "ARS",
      "base_currency_name": "Argentine peso",
      "last_updated_utc": "2017-01-01T00:00:00Z"
    },
    {
      "ticker": "C:ARSBRL",
      "name": "Argentine peso - Brazilian real",
      "market": "fx",
      "locale": "global",
      "active": true,
      "currency_symbol": "BRL",
      "currency_name": "Brazilian real",
      "base_currency_symbol": "ARS",
      "base_currency_name": "Argentine peso",
      "last_updated_utc": "2017-01-01T00:00:00Z"
    },
    {
      "ticker": "C:ARSCAD",
      "name": "Argentine peso - Canadian dollar",
      "market": "fx",
      "locale": "global",
      "active": true,
      "currency_symbol": "CAD",
      "currency_name": "Canadian dollar",
      "base_currency_symbol": "ARS",
      "base_currency_name": "Argentine peso",
      "last_updated_utc": "2017-01-01T00:00:00Z"
    },
    {
      "ticker": "C:ARSCHF",
      "name": "Argentine peso - Swiss franc",
      "market": "fx",
      "locale": "global",
      "active": true,
      "currency_symbol": "CHF",
      "currency_name": "Swiss franc",
      "base_currency_symbol": "ARS",
      "base_currency_name": "Argentine peso",
      "last_updated_utc": "2017-01-01T00:00:00Z"
    },
    {
      "ticker": "C:ARSCLP",
      "name": "Argentine peso - Chilean peso",
      "market": "fx",
      "locale": "global",
      "active": true,
      "currency_symbol": "CLP",
      "currency_name": "Chilean peso",
      "base_currency_symbol": "ARS",
      "base_currency_name": "Argentine peso",
      "last_updated_utc": "2017-01-01T00:00:00Z"
    },
    {
      "ticker": "C:ARSCOP",
      "name": "Argentine peso - Colombian peso",
      "market": "fx",
      "locale": "global",
      "active": true,
      "currency_symbol": "COP",
      "currency_name": "Colombian peso",
      "base_currency_symbol": "ARS",
      "base_currency_name": "Argentine peso",
      "last_updated_utc": "2017-01-01T00:00:00Z"
    },
    {
      "ticker": "C:ARSEUR",
      "name": "Argentine peso - Euro",
      "market": "fx",
      "locale": "global",
      "active": true,
      "currency_symbol": "EUR",
      "currency_name": "Euro",
      "base_currency_symbol": "ARS",
      "base_currency_name": "Argentine peso",
      "last_updated_utc": "2017-01-01T00:00:00Z"
    },
    {
      "ticker": "C:ARSGBP",
      "name": "Argentine peso - Pound sterling",
      "market": "fx",
      "locale": "global",
      "active": true,
      "currency_symbol": "GBP",
      "currency_name": "Pound sterling",
      "base_currency_symbol": "ARS",
      "base_currency_name": "Argentine peso",
      "last_updated_utc": "2017-01-01T00:00:00Z"
    },
    {
      "ticker": "C:ARSHKD",
      "name": "Argentine peso - Hong Kong dollar",
      "market": "fx",
      "locale": "global",
      "active": true,
      "currency_symbol": "HKD",
      "currency_name": "Hong Kong dollar",
      "base_currency_symbol": "ARS",
      "base_currency_name": "Argentine peso",
      "last_updated_utc": "2017-01-01T00:00:00Z"
    },
    {
      "ticker": "C:ARSJPY",
      "name": "Argentine peso - Japanese yen",
      "market": "fx",
      "locale": "global",
      "active": true,
      "currency_symbol": "JPY",
      "currency_name": "Japanese yen",
      "base_currency_symbol": "ARS",
      "base_currency_name": "Argentine peso",
      "last_updated_utc": "2017-01-01T00:00:00Z"
    },
    {
      "ticker": "C:ARSMXN",
      "name": "Argentine peso - Mexican peso",
      "market": "fx",
      "locale": "global",
      "active": true,
      "currency_symbol": "MXN",
      "currency_name": "Mexican peso",
      "base_currency_symbol": "ARS",
      "base_currency_name": "Argentine peso",
      "last_updated_utc": "2017-01-01T00:00:00Z"
    },
    {
      "ticker": "C:ARSPEN",
      "name": "Argentine peso - Peruvian nuevo sol",
      "market": "fx",
      "locale": "global",
      "active": true,
      "currency_symbol": "PEN",
      "currency_name": "Peruvian nuevo sol",
      "base_currency_symbol": "ARS",
      "base_currency_name": "Argentine peso",
      "last_updated_utc": "2017-01-01T00:00:00Z"
    },
    {
      "ticker": "C:ARSSGD",
      "name": "Argentine peso - Singapore dollar",
      "market": "fx",
      "locale": "global",
      "active": true,
      "currency_symbol": "SGD",
      "currency_name": "Singapore dollar",
      "base_currency_symbol": "ARS",
      "base_currency_name": "Argentine peso",
      "last_updated_utc": "2017-01-01T00:00:00Z"
    },
    {
      "ticker": "C:ARSUSD",
      "name": "Argentine peso - United States dollar",
      "market": "fx",
      "locale": "global",
      "active": true,
      "currency_symbol": "USD",
      "currency_name": "United States dollar",
      "base_currency_symbol": "ARS",
      "base_currency_name": "Argentine peso",
      "last_updated_utc": "2017-01-01T00:00:00Z"
    },
    {
      "ticker": "C:ARSZAR",
      "name": "Argentine peso - South African rand",
      "market": "fx",
      "locale": "global",
      "active": true,
      "currency_symbol": "ZAR",
      "currency_name": "South African rand",
      "base_currency_symbol": "ARS",
      "base_currency_name": "Argentine peso",
      "last_updated_utc": "2017-01-01T00:00:00Z"
    },
    {
      "ticker": "C:AUDAED",
      "name": "Australian dollar - United Arab Emirates dirham",
      "market": "fx",
      "locale": "global",
      "active": true,
      "currency_symbol": "AED",
      "currency_name": "United Arab Emirates dirham",
      "base_currency_symbol": "AUD",
      "base_currency_name": "Australian dollar",
      "last_updated_utc": "2017-01-01T00:00:00Z"
    },
    {
      "ticker": "C:AUDARS",
      "name": "Australian dollar - Argentine peso",
      "market": "fx",
      "locale": "global",
      "active": true,
      "currency_symbol": "ARS",
      "currency_name": "Argentine peso",
      "base_currency_symbol": "AUD",
      "base_currency_name": "Australian dollar",
      "last_updated_utc": "2017-01-01T00:00:00Z"
    },
    {
      "ticker": "C:AUDBGN",
      "name": "Australian dollar - Bulgarian lev",
      "market": "fx",
      "locale": "global",
      "active": true,
      "currency_symbol": "BGN",
      "currency_name": "Bulgarian lev",
      "base_currency_symbol": "AUD",
      "base_currency_name": "Australian dollar",
      "last_updated_utc": "2017-01-01T00:00:00Z"
    },
    {
      "ticker": "C:AUDBRL",
      "name": "Australian dollar - Brazilian real",
      "market": "fx",
      "locale": "global",
      "active": true,
      "currency_symbol": "BRL",
      "currency_name": "Brazilian real",
      "base_currency_symbol": "AUD",
      "base_currency_name": "Australian dollar",
      "last_updated_utc": "2017-01-01T00:00:00Z"
    },
    {
      "ticker": "C:AUDCAD",
      "name": "Australian dollar - Canadian dollar",
      "market": "fx",
      "locale": "global",
      "active": true,
      "currency_symbol": "CAD",
      "currency_name": "Canadian dollar",
      "base_currency_symbol": "AUD",
      "base_currency_name": "Australian dollar",
      "last_updated_utc": "2017-01-01T00:00:00Z"
    },
    {
      "ticker": "C:AUDCHF",
      "name": "Australian dollar - Swiss franc",
      "market": "fx",
      "locale": "global",
      "active": true,
      "currency_symbol": "CHF",
      "currency_name": "Swiss franc",
      "base_currency_symbol": "AUD",
      "base_currency_name": "Australian dollar",
      "last_updated_utc": "2017-01-01T00:00:00Z"
    },
    {
      "ticker": "C:AUDCLP",
      "name": "Australian dollar - Chilean peso",
      "market": "fx",
      "locale": "global",
      "active": true,
      "currency_symbol": "CLP",
      "currency_name": "Chilean peso",
      "base_currency_symbol": "AUD",
      "base_currency_name": "Australian dollar",
      "last_updated_utc": "2017-01-01T00:00:00Z"
    },
    {
      "ticker": "C:AUDCNH",
      "name": "Australian dollar - Chinese yuan",
      "market": "fx",
      "locale": "global",
      "active": true,
      "currency_symbol": "CNH",
      "currency_name": "Chinese yuan",
      "base_currency_symbol": "AUD",
      "base_currency_name": "Australian dollar",
      "last_updated_utc": "2017-01-01T00:00:00Z"
    },
    {
      "ticker": "C:AUDCNY",
      "name": "Australian dollar - Chinese yuan",
      "market": "fx",
      "locale": "global",
      "active": true,
      "currency_symbol": "CNY",
      "currency_name": "Chinese yuan",
      "base_currency_symbol": "AUD",
      "base_currency_name": "Australian dollar",
      "last_updated_utc": "2017-01-01T00:00:00Z"
    },
    {
      "ticker": "C:AUDCZK",
      "name": "Australian dollar - Czech koruna",
      "market": "fx",
      "locale": "global",
      "active": true,
      "currency_symbol": "CZK",
      "currency_name": "Czech koruna",
      "base_currency_symbol": "AUD",
      "base_currency_name": "Australian dollar",
      "last_updated_utc": "2017-01-01T00:00:00Z"
    },
    {
      "ticker": "C:AUDDKK",
      "name": "Australian dollar - Danish krone",
      "market": "fx",
      "locale": "global",
      "active": true,
      "currency_symbol": "DKK",
      "currency_name": "Danish krone",
      "base_currency_symbol": "AUD",
      "base_currency_name": "Australian dollar",
      "last_updated_utc": "2017-01-01T00:00:00Z"
    },
    {
      "ticker": "C:AUDEUR",
      "name": "Australian dollar - Euro",
      "market": "fx",
      "locale": "global",
      "active": true,
      "currency_symbol": "EUR",
      "currency_name": "Euro",
      "base_currency_symbol": "AUD",
      "base_currency_name": "Australian dollar",
      "last_updated_utc": "2017-01-01T00:00:00Z"
    },
    {
      "ticker": "C:AUDFJD",
      "name": "Australian dollar - Fiji dollar",
      "market": "fx",
      "locale": "global",
      "active": true,
      "currency_symbol": "FJD",
      "currency_name": "Fiji dollar",
      "base_currency_symbol": "AUD",
      "base_currency_name": "Australian dollar",
      "last_updated_utc": "2017-01-01T00:00:00Z"
    },
    {
      "ticker": "C:AUDGBP",
      "name": "Australian dollar - Pound sterling",
      "market": "fx",
      "locale": "global",
      "active": true,
      "currency_symbol": "GBP",
      "currency_name": "Pound sterling",
      "base_currency_symbol": "AUD",
      "base_currency_name": "Australian dollar",
      "last_updated_utc": "2017-01-01T00:00:00Z"
    }
  ],
  "status": "OK",
  "request_id": "0984389714f5a401cf0ca2c3bb40acd7",
  "count": 100,
  "next_url": "https://api.massive.com/v3/reference/tickers?cursor=YWN0aXZlPXRydWUmYXA9MTAwJmFzPSZsaW1pdD0xMDAmbWFya2V0PWZ4Jm9yZGVyPWFzYyZzb3J0PXRpY2tlcg"
}